…
# trace_neighbors

    Code
      trace_neighbors(matrix(locs[10, ], 1, 2), grid, dat_neighbors)
    Output
      [1] 946

# get_neighbors

    Code
      dat_neighbors
    Output
      [[1]]
      # A tibble: 12,344 x 2
         grid_cell grid_cell_neighbors
             <int>               <int>
       1         1                   1
       2         1                   2
       3         1                   3
       4         1                  23
       5         1                  24
       6         1                  25
       7         1                  45
       8         1                  46
       9         1                  47
      10         2                   1
      # ... with 12,334 more rows
      
      [[2]]
      # A tibble: 11,998 x 2
         grid_cell grid_cell_neighbors
             <int>               <int>
       1         1                   1
       2         1                   2
       3         1                   3
       4         1                  43
       5         1                  44
       6         1                  45
       7         1                  85
       8         1                  86
       9         1                  87
      10         2                   1
      # ... with 11,988 more rows
      
      [[3]]
      # A tibble: 43,866 x 2
         grid_cell grid_cell_neighbors
             <int>               <int>
       1         1                   1
       2         1                   2
       3         1                   3
       4         1                  83
       5         1                  84
       6         1                  85
       7         1                 165
       8         1                 166
       9         1                 167
      10         2                   1
      # ... with 43,856 more rows
      

# get_neighbors_layers

    Code
      dat_neighbors
    Output
      [[1]]
      # A tibble: 3,036 x 3
         grid_cell_neighbors grid_cell layer
                       <int>     <int> <chr>
       1                   1         1 1~2  
       2                   2         1 1~2  
       3                  23         1 1~2  
       4                  24         1 1~2  
       5                   1         2 1~2  
       6                   2         2 1~2  
       7                   3         2 1~2  
       8                   4         2 1~2  
       9                  23         2 1~2  
      10                  24         2 1~2  
      # ... with 3,026 more rows
      
      [[2]]
      # A tibble: 11,156 x 3
         grid_cell_neighbors grid_cell layer
                       <int>     <int> <chr>
       1                   1         1 2~3  
       2                   2         1 2~3  
       3                  43         1 2~3  
       4                  44         1 2~3  
       5                   1         2 2~3  
       6                   2         2 2~3  
       7                   3         2 2~3  
       8                   4         2 2~3  
       9                  43         2 2~3  
      10                  44         2 2~3  
      # ... with 11,146 more rows
…
